<svg xmlns="http://www.w3.org/2000/svg" xmlns:xlink="http://www.w3.org/1999/xlink" viewBox="0 0 56.69 56.69">
  <defs>
    <style>
      .a {
        fill: url(#a);
      }

      .b {
        fill: #97d9ef;
      }

      .c {
        fill: #fff;
      }
    </style>
    <linearGradient id="a" x1="28.35" y1="56.69" x2="28.35" gradientUnits="userSpaceOnUse">
      <stop offset="0" stop-color="#129ed5"/>
      <stop offset="0.14" stop-color="#148dc2"/>
      <stop offset="0.53" stop-color="#186295"/>
      <stop offset="0.83" stop-color="#1a4779"/>
      <stop offset="1" stop-color="#1b3d6e"/>
    </linearGradient>
  </defs>
  <g>
    <rect class="a" width="56.69" height="56.69" rx="3.21"/>
    <g>
      <path class="b" d="M8.44,50.28a5.69,5.69,0,0,1-1.37.15,2.72,2.72,0,0,1-2.8-3A3,3,0,0,1,7.21,44.1a5.73,5.73,0,0,1,1.22.12l-.08.59a4.55,4.55,0,0,0-1.18-.12A2.29,2.29,0,0,0,5,47.28c0,1.74,1,2.56,2.23,2.56a5.09,5.09,0,0,0,1.26-.13Z"/>
      <path class="b" d="M13.65,50.36h-.71l-.53-1.74H9.92l-.53,1.74H8.71l2-6.2h1Zm-2.42-5.67h-.09l-1,3.36h2.14Z"/>
      <path class="b" d="M14.61,44.16h.65v5.62h2.39v.58h-3Z"/>
      <path class="b" d="M22.43,50.28a5.83,5.83,0,0,1-1.38.15,2.72,2.72,0,0,1-2.8-3A3,3,0,0,1,21.2,44.1a5.8,5.8,0,0,1,1.22.12l-.09.59a4.52,4.52,0,0,0-1.17-.12,2.29,2.29,0,0,0-2.22,2.59c0,1.74,1,2.56,2.23,2.56a5.19,5.19,0,0,0,1.26-.13Z"/>
      <path class="b" d="M23.42,48.23V44.16h.67v4c0,1.19.43,1.68,1.51,1.68a1.42,1.42,0,0,0,1.5-1.63V44.16h.64v4a2,2,0,0,1-2.22,2.25A1.92,1.92,0,0,1,23.42,48.23Z"/>
      <path class="b" d="M29.43,44.16h.65v5.62h2.38v.58h-3Z"/>
      <path class="b" d="M37.67,50.36H37l-.53-1.74H33.94l-.53,1.74h-.68l2-6.2h1Zm-2.42-5.67h-.09l-1,3.36h2.14Z"/>
      <path class="b" d="M39.92,50.36h-.66V44.74H37.42v-.58h4.33v.58H39.92Z"/>
      <path class="b" d="M44.78,44.07c1.43,0,2.5,1.07,2.5,3.14s-1.16,3.24-2.66,3.24-2.51-1.07-2.51-3.14S43.28,44.07,44.78,44.07Zm-.08,5.79c.9,0,1.91-.66,1.91-2.55s-.87-2.65-1.9-2.65-1.92.66-1.92,2.55S43.67,49.86,44.7,49.86Z"/>
      <path class="b" d="M49.23,50.36h-.65v-6.2h1.59c1.33,0,2.07.63,2.07,1.66A1.73,1.73,0,0,1,51,47.58l1.65,2.78h-.77l-1.53-2.65H49.23Zm0-3.21h.92c.87,0,1.42-.38,1.42-1.23s-.46-1.2-1.45-1.2h-.89Z"/>
    </g>
    <g>
      <path class="c" d="M12.85,39.69H10.6l-.69-2.46H6.23l-.7,2.46h-2L6.7,28.91h3Zm-4.72-9H8l-1.4,5H9.48Z"/>
      <path class="c" d="M14.27,28.91h5.65v1.63H16.24v2.79h3.38V35H16.24v3.11H20v1.62h-5.7Z"/>
      <path class="c" d="M24.08,39.69h-2V28.91h3.15c2.7,0,4,1.24,4,3a3.27,3.27,0,0,1-2,3.11l2.86,4.66h-2.3l-2.46-4.12H24.08Zm0-5.66h1.2a1.78,1.78,0,0,0,1.95-1.88c0-1.1-.62-1.66-2.12-1.66h-1Z"/>
      <path class="c" d="M33.39,39.69h-2V28.91h2Z"/>
      <path class="c" d="M35.87,36v-7h2v6.82c0,1.61.74,2.34,2.15,2.34s2.12-.81,2.12-2.3V28.91H44v6.91a3.79,3.79,0,0,1-4.11,4C37.12,39.83,35.87,38.48,35.87,36Z"/>
      <path class="c" d="M45.6,37.9a13.67,13.67,0,0,0,2.75.27c1.49,0,2.31-.66,2.31-1.43s-.33-1.1-1.62-1.55l-1.35-.46a2.65,2.65,0,0,1-2-2.71c0-1.87,1.52-3.22,4.16-3.22a11.45,11.45,0,0,1,2.28.21L52,30.66a11.22,11.22,0,0,0-2.25-.22c-1.48,0-2.13.58-2.13,1.35S48,32.86,49,33.17l1.33.43c1.58.51,2.27,1.36,2.27,2.76,0,2-1.64,3.45-4.34,3.45a13.93,13.93,0,0,1-2.68-.2Z"/>
    </g>
    <g>
      <polygon class="c" points="26.44 6.92 28.35 3.62 30.25 6.92 26.44 6.92"/>
      <path class="c" d="M31.82,9.24H24.87A3.86,3.86,0,0,0,21,13.1v7a3.87,3.87,0,0,0,3.87,3.87h1.58V20.67h3.8v3.26h1.57a3.87,3.87,0,0,0,3.87-3.87v-7A3.86,3.86,0,0,0,31.82,9.24ZM26.44,16.3,28.35,13l1.9,3.3Z"/>
    </g>
    <path class="c" d="M53.8,26.29a1.36,1.36,0,1,1-1.36,1.36A1.36,1.36,0,0,1,53.8,26.29Zm0,2.53a1.17,1.17,0,1,0-1.15-1.17A1.16,1.16,0,0,0,53.8,28.82Zm-.28-.41h-.23V26.85h.48c.4,0,.59.17.59.43a.45.45,0,0,1-.34.46l.45.67h-.29l-.4-.61h-.26Zm0-.81h.21c.26,0,.38-.1.38-.3s-.11-.25-.34-.25h-.25Z"/>
  </g>
</svg>
