<?xml version="1.0" encoding="UTF-8"?>
<svg xmlns="http://www.w3.org/2000/svg" viewBox="0 0 40 70" width="40px" height="70px">
  <defs>
    <style>
      .c {
        fill: #00aeef;
      }

      .d {
        fill: #fff;
      }
    </style>
  </defs>
  <g id="a" data-name="Layer 1">
    <g>
      <path d="m38.86,19.68C38.86,9.09,30.27.51,19.68.51S.51,9.09.51,19.68c0,2.76.59,5.37,1.64,7.74h-.01l17.49,41.28,17.6-41.28h-.01c1.05-2.37,1.64-4.99,1.64-7.74Z"/>
      <ellipse class="d" cx="19.62" cy="19.61" rx="15.72" ry="15.73"/>
      <ellipse class="c" cx="19.62" cy="19.61" rx="12.61" ry="12.62"/>
      <path class="d" d="m19.68.51c10.59,0,19.18,8.58,19.18,19.18,0,2.76-.59,5.37-1.64,7.74h.01l-17.6,41.28L2.13,27.43h.01c-1.05-2.37-1.64-4.99-1.64-7.74C.51,9.09,9.09.51,19.68.51m0-.51C8.83,0,0,8.83,0,19.68c0,2.49.47,4.92,1.39,7.24h0l.28.7,17.49,41.28.46,1.09.47-1.09,17.6-41.28.3-.7h-.02c.92-2.32,1.39-4.75,1.39-7.24C39.36,8.83,30.53,0,19.68,0h0Z"/>
    </g>
    <path class="d" d="m11.98,17.26c0-2.4,1.2-3.78,2.92-3.78s2.93,1.38,2.93,3.78-1.22,3.82-2.93,3.82-2.92-1.41-2.92-3.82Zm4.17,0c0-1.77-.55-2.43-1.25-2.43s-1.23.66-1.23,2.43.54,2.48,1.23,2.48,1.25-.71,1.25-2.48Zm5.67-3.78h1.41l-6.51,12.45h-1.41l6.51-12.45Zm-1.12,8.62c0-2.41,1.22-3.79,2.92-3.79s2.93,1.38,2.93,3.79-1.23,3.83-2.93,3.83-2.92-1.43-2.92-3.83Zm4.17,0c0-1.77-.55-2.45-1.25-2.45s-1.23.68-1.23,2.45.53,2.46,1.23,2.46,1.25-.7,1.25-2.46Z"/>
  </g>
  <g id="b" data-name="situatie-types als OUTLINE">
    <g>
      <path class="d" d="m14.85,38.18h1.77v8.89h-1.77v-8.89Z"/>
      <path class="d" d="m18.37,42.67c0-2.93,1.88-4.64,4.13-4.64,1.13,0,2.03.54,2.6,1.14l-.92,1.13c-.46-.43-.97-.74-1.64-.74-1.34,0-2.35,1.15-2.35,3.06s.91,3.09,2.31,3.09c.77,0,1.36-.36,1.83-.88l.94,1.1c-.73.85-1.68,1.31-2.83,1.31-2.24,0-4.07-1.61-4.07-4.57Z"/>
    </g>
  </g>
</svg>