<?xml version="1.0" encoding="UTF-8"?>
<svg xmlns="http://www.w3.org/2000/svg" viewBox="0 0 40 70" width="40px" height="70px">
  <defs>
    <style>
      .c {
        fill: #fff;
      }

      .d {
        fill: #db4892;
      }
    </style>
  </defs>
  <g id="a" data-name="Layer 1">
    <g>
      <path d="m38.86,19.68C38.86,9.09,30.27.51,19.68.51S.51,9.09.51,19.68c0,2.76.59,5.37,1.64,7.74h-.01l17.49,41.28,17.6-41.28h-.01c1.05-2.37,1.64-4.99,1.64-7.74Z"/>
      <ellipse class="c" cx="19.62" cy="19.61" rx="15.72" ry="15.73"/>
      <ellipse class="d" cx="19.62" cy="19.61" rx="12.61" ry="12.62"/>
      <path class="c" d="m19.68.51c10.59,0,19.18,8.58,19.18,19.18,0,2.76-.59,5.37-1.64,7.74h.01l-17.6,41.28L2.13,27.43h.01c-1.05-2.37-1.64-4.99-1.64-7.74C.51,9.09,9.09.51,19.68.51m0-.51C8.83,0,0,8.83,0,19.68c0,2.49.47,4.92,1.39,7.24h0l.28.7,17.49,41.28.46,1.09.47-1.09,17.6-41.28.3-.7h-.02c.92-2.32,1.39-4.75,1.39-7.24C39.36,8.83,30.53,0,19.68,0h0Z"/>
    </g>
    <rect class="c" x="13.24" y="18.46" width="12.89" height="2.02"/>
  </g>
  <g id="b" data-name="situatie-types als OUTLINE">
    <g>
      <path class="c" d="m12.98,38.18h2.91c1.97,0,3.48.7,3.48,2.79s-1.52,2.94-3.43,2.94h-1.19v3.15h-1.77v-8.89Zm2.84,4.33c1.22,0,1.81-.52,1.81-1.54s-.65-1.38-1.87-1.38h-1.01v2.91h1.07Z"/>
      <path class="c" d="m20.24,42.67c0-2.93,1.88-4.64,4.13-4.64,1.13,0,2.03.54,2.6,1.14l-.92,1.13c-.46-.43-.97-.74-1.64-.74-1.34,0-2.35,1.15-2.35,3.06s.91,3.09,2.31,3.09c.77,0,1.36-.36,1.83-.88l.94,1.1c-.73.85-1.68,1.31-2.83,1.31-2.24,0-4.07-1.61-4.07-4.57Z"/>
    </g>
  </g>
</svg>