<?xml version="1.0" encoding="UTF-8"?>
<svg xmlns="http://www.w3.org/2000/svg" viewBox="0 0 40 70" width="40px" height="70px">
  <defs>
    <style>
      .c {
        fill: #fff;
      }

      .d {
        fill: #db4892;
      }

      .e {
        fill: #4e378c;
      }
    </style>
  </defs>
  <g id="a" data-name="Layer 1">
    <g>
      <path d="m38.86,19.68C38.86,9.09,30.27.51,19.68.51S.51,9.09.51,19.68c0,2.76.59,5.37,1.64,7.74h-.01l17.49,41.28,17.6-41.28h-.01c1.05-2.37,1.64-4.99,1.64-7.74Z"/>
      <ellipse class="c" cx="19.62" cy="19.61" rx="15.72" ry="15.73"/>
      <path class="c" d="m19.68.51c10.59,0,19.18,8.58,19.18,19.18,0,2.76-.59,5.37-1.64,7.74h.01l-17.6,41.28L2.13,27.43h.01c-1.05-2.37-1.64-4.99-1.64-7.74C.51,9.09,9.09.51,19.68.51m0-.51C8.83,0,0,8.83,0,19.68c0,2.49.47,4.92,1.39,7.24h0l.28.7,17.49,41.28.46,1.09.47-1.09,17.6-41.28.3-.7h-.02c.92-2.32,1.39-4.75,1.39-7.24C39.36,8.83,30.53,0,19.68,0h0Z"/>
    </g>
    <g>
      <path class="d" d="m18.18,7.08c-6.28.72-11.17,6.05-11.17,12.53s4.88,11.81,11.17,12.53V7.08Z"/>
      <path class="e" d="m21.18,7.09v25.03c6.23-.77,11.06-6.07,11.06-12.51s-4.83-11.75-11.06-12.51Z"/>
    </g>
    <circle class="c" cx="13.4" cy="19.94" r="2.32"/>
    <polygon class="c" points="26.66 20.47 28.99 23.66 30.15 22.76 27.84 19.67 31.5 18.43 31.05 17.05 27.37 18.3 27.37 14.43 25.95 14.43 25.95 18.3 22.26 17.05 21.81 18.43 25.47 19.67 23.21 22.76 24.4 23.66 26.66 20.47"/>
  </g>
  <g id="b" data-name="situatie-types als OUTLINE">
    <g>
      <path class="c" d="m12.35,45.94l1.02-1.22c.64.59,1.47.98,2.25.98.92,0,1.42-.4,1.42-1.02,0-.66-.54-.86-1.33-1.2l-1.19-.5c-.9-.37-1.8-1.09-1.8-2.39,0-1.45,1.27-2.57,3.07-2.57,1.03,0,2.06.41,2.78,1.14l-.9,1.12c-.56-.47-1.15-.73-1.88-.73-.78,0-1.27.35-1.27.94,0,.64.62.86,1.38,1.16l1.16.49c1.08.44,1.79,1.13,1.79,2.41,0,1.45-1.21,2.69-3.26,2.69-1.19,0-2.38-.47-3.24-1.3Z"/>
      <path class="c" d="m20.42,38.18h3.09c1.86,0,3.33.66,3.33,2.7,0,1.33-.67,2.16-1.69,2.55l2.07,3.63h-1.98l-1.82-3.36h-1.24v3.36h-1.77v-8.89Zm2.93,4.13c1.14,0,1.78-.48,1.78-1.43s-.64-1.28-1.78-1.28h-1.15v2.71h1.15Z"/>
    </g>
  </g>
</svg>