<?xml version="1.0" encoding="UTF-8"?>
<svg id="a" data-name="Layer_1" xmlns="http://www.w3.org/2000/svg" xmlns:xlink="http://www.w3.org/1999/xlink" viewBox="0 0 46 100">
  <defs>
    <style>
      .j {
        fill: url(#b);
      }

      .k {
        fill: #f9eccd;
      }

      .l {
        isolation: isolate;
      }

      .m {
        fill: #fff;
      }
    </style>
    <linearGradient id="b" x1="-95.27" y1="213.33" x2="-95.27" y2="214.33" gradientTransform="translate(9549.63 21433.27) scale(100 -100)" gradientUnits="userSpaceOnUse">
      <stop offset="0" stop-color="#f6b21c"/>
      <stop offset=".07" stop-color="#f3a920"/>
      <stop offset=".26" stop-color="#ec9225"/>
      <stop offset=".46" stop-color="#e4822b"/>
      <stop offset=".69" stop-color="#e17a31"/>
      <stop offset="1" stop-color="#e17731"/>
    </linearGradient>
  </defs>
  <rect id="c" data-name="Rectangle_9" class="j" width="46" height="100"/>
  <g id="d" data-name="Group_1">
    <path id="e" data-name="Path_1" class="m" d="M20.02,20.11l2.98-5.16,2.98,5.16h-5.97Z"/>
    <path id="f" data-name="Path_2" class="m" d="M28.43,23.73h-10.88c-3.34,0-6.06,2.71-6.06,6.05h0v10.89c0,3.34,2.71,6.05,6.06,6.05h2.47v-5.1h5.96v5.1h2.45c3.35,0,6.06-2.71,6.06-6.05h0v-10.89c0-3.35-2.71-6.06-6.06-6.06,0,0,0,0,0,0ZM20.02,34.79l2.98-5.16,2.98,5.16h-5.97Z"/>
  </g>
  <g id="g" data-name="Group_2">
    <g id="h" data-name="AERIUS" class="l">
      <g class="l">
        <path class="m" d="M12.28,63.47h-1.61l-.49-1.77h-2.64l-.5,1.77h-1.46l2.3-7.73h2.13l2.27,7.73ZM8.9,56.99h-.08l-1,3.58h2.05l-.97-3.58Z"/>
        <path class="m" d="M13.29,55.74h4.05v1.17h-2.64v2h2.43v1.17h-2.43v2.23h2.67v1.17h-4.09v-7.73Z"/>
        <path class="m" d="M20.33,63.47h-1.41v-7.73h2.26c1.93,0,2.89.88,2.89,2.16,0,1.05-.54,1.84-1.4,2.23l2.05,3.35h-1.65l-1.77-2.96h-.97v2.96ZM20.33,59.41h.86c.85,0,1.4-.49,1.4-1.34,0-.79-.45-1.19-1.52-1.19h-.74v2.53Z"/>
        <path class="m" d="M26.99,63.47h-1.41v-7.73h1.41v7.73Z"/>
      </g>
      <g class="l">
        <path class="m" d="M28.78,60.8v-5.05h1.41v4.89c0,1.15.53,1.67,1.54,1.67s1.52-.58,1.52-1.65v-4.91h1.34v4.95c0,1.73-1.12,2.88-2.94,2.88-1.98,0-2.87-.97-2.87-2.77Z"/>
      </g>
      <g class="l">
        <path class="m" d="M35.75,62.19c.75.14,1.31.19,1.97.19,1.07,0,1.66-.47,1.66-1.02,0-.5-.24-.79-1.17-1.11l-.97-.33c-.91-.31-1.4-.95-1.4-1.94,0-1.34,1.08-2.31,2.98-2.31.55,0,1.11.05,1.64.15l-.09,1.18c-.57-.11-1.02-.15-1.61-.15-1.06,0-1.53.41-1.53.97,0,.48.27.77.98.99l.95.31c1.13.37,1.62.98,1.62,1.98,0,1.46-1.18,2.47-3.11,2.47-.71,0-1.25-.02-1.92-.14v-1.23Z"/>
      </g>
    </g>
    <g id="i" data-name="_" class="l">
      <g class="l">
        <path class="m" d="M41.63,53.87c.53,0,.97.44.97.97s-.44.98-.97.98-.97-.44-.97-.98.44-.97.97-.97ZM41.63,55.67c.45,0,.82-.38.82-.83s-.37-.83-.82-.83-.83.38-.83.83.37.83.83.83ZM41.43,55.39h-.17v-1.12h.34c.29,0,.42.12.42.3,0,.17-.09.28-.24.33l.32.48h-.21l-.29-.44h-.18v.44ZM41.43,54.8h.14c.19,0,.28-.07.28-.21,0-.12-.08-.18-.25-.18h-.17v.4Z"/>
      </g>
    </g>
  </g>
  <g>
    <path class="k" d="M14.83,72.53c-.46.09-.78.14-1.37.14-1.56,0-2.74-1.01-2.74-3.02,0-2.29,1.46-3.25,2.93-3.25.5,0,.78.05,1.19.14l-.09.59c-.5-.09-.69-.14-1.14-.14-1.1,0-2.2.82-2.2,2.56s.96,2.52,2.2,2.52c.46,0,.73,0,1.24-.14v.59h0Z"/>
    <path class="k" d="M19.41,69.79h-2.88v2.84h-.64v-6.13h.64v2.7h2.88v-2.7h.64v6.13h-.64v-2.84Z"/>
    <path class="k" d="M21.74,66.5h2.97v.59h-2.33v2.1h2.1v.59h-2.1v2.29h2.38v.59h-3.02v-6.18h0Z"/>
    <path class="k" d="M29.84,72.53c-.46.09-.78.14-1.37.14-1.56,0-2.74-1.01-2.74-3.02,0-2.29,1.46-3.25,2.88-3.25.5,0,.78.05,1.19.14l-.09.59c-.5-.09-.69-.14-1.14-.14-1.1,0-2.2.82-2.2,2.56s.96,2.52,2.2,2.52c.46,0,.73,0,1.24-.14l.05.59h0Z"/>
    <path class="k" d="M31.48,66.5v2.7h.5l2.24-2.7h.78l-2.42,2.88,2.52,3.2h-.87l-2.2-2.84h-.55v2.84h-.64v-6.08h.64Z"/>
  </g>
</svg>